EESchema Schematic File Version 4
LIBS:Signal_Detector-cache
EELAYER 26 0
EELAYER END
$Descr A4 11693 8268
encoding utf-8
Sheet 1 1
Title "Audio Detector Power-On Circuit"
Date ""
Rev ""
Comp ""
Comment1 ""
Comment2 ""
Comment3 ""
Comment4 ""
$EndDescr
$Comp
L Amplifier_Operational:LM358 U1
U 1 1 5B875C31
P 3400 3250
F 0 "U1" H 3400 3617 50  0000 C CNN
F 1 "LM358" H 3400 3526 50  0000 C CNN
F 2 "Package_DIP:DIP-8_W7.62mm_LongPads" H 3400 3250 50  0001 C CNN
F 3 "http://www.ti.com/lit/ds/symlink/lm2904-n.pdf" H 3400 3250 50  0001 C CNN
	1    3400 3250
	1    0    0    -1  
$EndComp
$Comp
L Amplifier_Operational:LM358 U1
U 2 1 5B875D31
P 2350 3350
F 0 "U1" H 2350 3717 50  0000 C CNN
F 1 "LM358" H 2350 3626 50  0000 C CNN
F 2 "Package_DIP:DIP-8_W7.62mm_LongPads" H 2350 3350 50  0001 C CNN
F 3 "http://www.ti.com/lit/ds/symlink/lm2904-n.pdf" H 2350 3350 50  0001 C CNN
	2    2350 3350
	1    0    0    -1  
$EndComp
$Comp
L Amplifier_Operational:LM358 U1
U 3 1 5B875DBE
P 1350 5900
F 0 "U1" H 1308 5946 50  0000 L CNN
F 1 "LM358" H 1308 5855 50  0000 L CNN
F 2 "Package_DIP:DIP-8_W7.62mm_LongPads" H 1350 5900 50  0001 C CNN
F 3 "http://www.ti.com/lit/ds/symlink/lm2904-n.pdf" H 1350 5900 50  0001 C CNN
	3    1350 5900
	1    0    0    -1  
$EndComp
$Comp
L Connector:Conn_01x03_Male J2
U 1 1 5B875F87
P 650 3150
F 0 "J2" H 756 3428 50  0000 C CNN
F 1 "SIGNAL_IN" H 756 3337 50  0000 C CNN
F 2 "Connector_Molex:Molex_KK-254_AE-6410-03A_1x03_P2.54mm_Vertical" H 650 3150 50  0001 C CNN
F 3 "~" H 650 3150 50  0001 C CNN
	1    650  3150
	1    0    0    -1  
$EndComp
$Comp
L Device:R R1
U 1 1 5B8760A8
P 1200 3050
F 0 "R1" V 993 3050 50  0000 C CNN
F 1 "10k" V 1084 3050 50  0000 C CNN
F 2 "Resistor_THT:R_Axial_DIN0204_L3.6mm_D1.6mm_P7.62mm_Horizontal" V 1130 3050 50  0001 C CNN
F 3 "~" H 1200 3050 50  0001 C CNN
	1    1200 3050
	0    1    1    0   
$EndComp
$Comp
L Device:R R2
U 1 1 5B8761F6
P 1200 3250
F 0 "R2" V 1400 3250 50  0000 C CNN
F 1 "10k" V 1300 3250 50  0000 C CNN
F 2 "Resistor_THT:R_Axial_DIN0204_L3.6mm_D1.6mm_P7.62mm_Horizontal" V 1130 3250 50  0001 C CNN
F 3 "~" H 1200 3250 50  0001 C CNN
	1    1200 3250
	0    1    1    0   
$EndComp
Wire Wire Line
	1050 3050 850  3050
Wire Wire Line
	850  3250 1050 3250
Wire Wire Line
	1350 3050 1550 3050
Wire Wire Line
	1550 3050 1550 3250
Wire Wire Line
	1350 3250 1550 3250
$Comp
L Device:CP_Small C2
U 1 1 5B876438
P 1750 3250
F 0 "C2" V 1525 3250 50  0000 C CNN
F 1 "1u" V 1616 3250 50  0000 C CNN
F 2 "Capacitor_THT:CP_Radial_D5.0mm_P2.00mm" H 1750 3250 50  0001 C CNN
F 3 "~" H 1750 3250 50  0001 C CNN
	1    1750 3250
	0    1    1    0   
$EndComp
Wire Wire Line
	1650 3250 1550 3250
Connection ~ 1550 3250
$Comp
L power:GND #PWR0101
U 1 1 5B876532
P 1000 3650
F 0 "#PWR0101" H 1000 3400 50  0001 C CNN
F 1 "GND" H 1005 3477 50  0000 C CNN
F 2 "" H 1000 3650 50  0001 C CNN
F 3 "" H 1000 3650 50  0001 C CNN
	1    1000 3650
	1    0    0    -1  
$EndComp
Wire Wire Line
	1000 3650 1000 3150
Wire Wire Line
	1000 3150 850  3150
$Comp
L power:GND #PWR0102
U 1 1 5B8767B4
P 1250 6200
F 0 "#PWR0102" H 1250 5950 50  0001 C CNN
F 1 "GND" H 1255 6027 50  0000 C CNN
F 2 "" H 1250 6200 50  0001 C CNN
F 3 "" H 1250 6200 50  0001 C CNN
	1    1250 6200
	1    0    0    -1  
$EndComp
Wire Wire Line
	1850 3250 1900 3250
$Comp
L Device:R R5
U 1 1 5B876A6D
P 2300 3900
F 0 "R5" V 2093 3900 50  0000 C CNN
F 1 "100k" V 2184 3900 50  0000 C CNN
F 2 "Resistor_THT:R_Axial_DIN0204_L3.6mm_D1.6mm_P7.62mm_Horizontal" V 2230 3900 50  0001 C CNN
F 3 "~" H 2300 3900 50  0001 C CNN
	1    2300 3900
	0    1    1    0   
$EndComp
$Comp
L Device:R R4
U 1 1 5B876AE1
P 1900 4250
F 0 "R4" H 1830 4204 50  0000 R CNN
F 1 "1k" H 1830 4295 50  0000 R CNN
F 2 "Resistor_THT:R_Axial_DIN0204_L3.6mm_D1.6mm_P7.62mm_Horizontal" V 1830 4250 50  0001 C CNN
F 3 "~" H 1900 4250 50  0001 C CNN
	1    1900 4250
	-1   0    0    1   
$EndComp
$Comp
L Device:CP_Small C3
U 1 1 5B876B5F
P 1900 4600
F 0 "C3" H 1988 4646 50  0000 L CNN
F 1 "33u" H 1988 4555 50  0000 L CNN
F 2 "Capacitor_THT:CP_Radial_D5.0mm_P2.00mm" H 1900 4600 50  0001 C CNN
F 3 "~" H 1900 4600 50  0001 C CNN
	1    1900 4600
	1    0    0    -1  
$EndComp
$Comp
L power:GND #PWR0103
U 1 1 5B876C12
P 1900 4700
F 0 "#PWR0103" H 1900 4450 50  0001 C CNN
F 1 "GND" H 1905 4527 50  0000 C CNN
F 2 "" H 1900 4700 50  0001 C CNN
F 3 "" H 1900 4700 50  0001 C CNN
	1    1900 4700
	1    0    0    -1  
$EndComp
Wire Wire Line
	1900 4500 1900 4400
Wire Wire Line
	2050 3450 1900 3450
Wire Wire Line
	1900 3450 1900 3900
Wire Wire Line
	2150 3900 1900 3900
Connection ~ 1900 3900
Wire Wire Line
	1900 3900 1900 4100
Wire Wire Line
	2450 3900 2750 3900
Wire Wire Line
	2750 3900 2750 3350
Wire Wire Line
	2750 3350 2650 3350
Wire Wire Line
	3100 3350 2750 3350
Connection ~ 2750 3350
$Comp
L Device:R R6
U 1 1 5B877187
P 2950 2700
F 0 "R6" H 2880 2654 50  0000 R CNN
F 1 "10k" H 2880 2745 50  0000 R CNN
F 2 "Resistor_THT:R_Axial_DIN0204_L3.6mm_D1.6mm_P7.62mm_Horizontal" V 2880 2700 50  0001 C CNN
F 3 "~" H 2950 2700 50  0001 C CNN
	1    2950 2700
	-1   0    0    1   
$EndComp
$Comp
L Device:R R7
U 1 1 5B877349
P 2950 3900
F 0 "R7" H 2880 3854 50  0000 R CNN
F 1 "100k" H 2880 3945 50  0000 R CNN
F 2 "Resistor_THT:R_Axial_DIN0204_L3.6mm_D1.6mm_P7.62mm_Horizontal" V 2880 3900 50  0001 C CNN
F 3 "~" H 2950 3900 50  0001 C CNN
	1    2950 3900
	-1   0    0    1   
$EndComp
Wire Wire Line
	2950 3750 2950 3150
Wire Wire Line
	2950 3150 3100 3150
Wire Wire Line
	2950 2850 2950 3150
Connection ~ 2950 3150
$Comp
L power:GND #PWR0104
U 1 1 5B8776D6
P 2950 4050
F 0 "#PWR0104" H 2950 3800 50  0001 C CNN
F 1 "GND" H 2955 3877 50  0000 C CNN
F 2 "" H 2950 4050 50  0001 C CNN
F 3 "" H 2950 4050 50  0001 C CNN
	1    2950 4050
	1    0    0    -1  
$EndComp
$Comp
L Device:R R3
U 1 1 5B877921
P 1900 2700
F 0 "R3" H 1830 2654 50  0000 R CNN
F 1 "100k" H 1830 2745 50  0000 R CNN
F 2 "Resistor_THT:R_Axial_DIN0204_L3.6mm_D1.6mm_P7.62mm_Horizontal" V 1830 2700 50  0001 C CNN
F 3 "~" H 1900 2700 50  0001 C CNN
	1    1900 2700
	-1   0    0    1   
$EndComp
Wire Wire Line
	1900 2850 1900 3250
Connection ~ 1900 3250
Wire Wire Line
	1900 3250 2050 3250
$Comp
L power:+12V #PWR0105
U 1 1 5B877BB0
P 5000 1400
F 0 "#PWR0105" H 5000 1250 50  0001 C CNN
F 1 "+12V" H 5015 1573 50  0000 C CNN
F 2 "" H 5000 1400 50  0001 C CNN
F 3 "" H 5000 1400 50  0001 C CNN
	1    5000 1400
	1    0    0    -1  
$EndComp
$Comp
L Device:R R8
U 1 1 5B877D60
P 4000 3250
F 0 "R8" V 3793 3250 50  0000 C CNN
F 1 "100" V 3884 3250 50  0000 C CNN
F 2 "Resistor_THT:R_Axial_DIN0204_L3.6mm_D1.6mm_P7.62mm_Horizontal" V 3930 3250 50  0001 C CNN
F 3 "~" H 4000 3250 50  0001 C CNN
	1    4000 3250
	0    1    1    0   
$EndComp
Wire Wire Line
	3850 3250 3700 3250
$Comp
L Device:D D3
U 1 1 5B878253
P 4400 3250
F 0 "D3" H 4400 3034 50  0000 C CNN
F 1 "1N4148" H 4400 3125 50  0000 C CNN
F 2 "Diode_THT:D_T-1_P5.08mm_Horizontal" H 4400 3250 50  0001 C CNN
F 3 "~" H 4400 3250 50  0001 C CNN
	1    4400 3250
	-1   0    0    1   
$EndComp
$Comp
L Transistor_FET:2N7000 Q1
U 1 1 5B8783EB
P 4900 3250
F 0 "Q1" H 5105 3296 50  0000 L CNN
F 1 "2N7000" H 5105 3205 50  0000 L CNN
F 2 "Package_TO_SOT_THT:TO-92_Inline" H 5100 3175 50  0001 L CIN
F 3 "https://www.fairchildsemi.com/datasheets/2N/2N7000.pdf" H 4900 3250 50  0001 L CNN
	1    4900 3250
	1    0    0    -1  
$EndComp
Wire Wire Line
	4700 3250 4600 3250
Wire Wire Line
	4250 3250 4150 3250
$Comp
L Device:R R10
U 1 1 5B878B03
P 4600 3650
F 0 "R10" H 4530 3604 50  0000 R CNN
F 1 "10M" H 4530 3695 50  0000 R CNN
F 2 "Resistor_THT:R_Axial_DIN0204_L3.6mm_D1.6mm_P7.62mm_Horizontal" V 4530 3650 50  0001 C CNN
F 3 "~" H 4600 3650 50  0001 C CNN
	1    4600 3650
	-1   0    0    1   
$EndComp
Wire Wire Line
	4600 3500 4600 3400
Connection ~ 4600 3250
Wire Wire Line
	4600 3250 4550 3250
Connection ~ 4600 3400
Wire Wire Line
	4600 3400 4600 3250
$Comp
L power:GND #PWR0106
U 1 1 5B8793CF
P 4600 3800
F 0 "#PWR0106" H 4600 3550 50  0001 C CNN
F 1 "GND" H 4605 3627 50  0000 C CNN
F 2 "" H 4600 3800 50  0001 C CNN
F 3 "" H 4600 3800 50  0001 C CNN
	1    4600 3800
	1    0    0    -1  
$EndComp
$Comp
L power:GND #PWR0108
U 1 1 5B87998A
P 5000 3450
F 0 "#PWR0108" H 5000 3200 50  0001 C CNN
F 1 "GND" H 5005 3277 50  0000 C CNN
F 2 "" H 5000 3450 50  0001 C CNN
F 3 "" H 5000 3450 50  0001 C CNN
	1    5000 3450
	1    0    0    -1  
$EndComp
$Comp
L Relay:RT42xxxx K1
U 1 1 5B87A582
P 5400 2300
F 0 "K1" H 6030 2346 50  0000 L CNN
F 1 "RT42xxxx" H 6030 2255 50  0000 L CNN
F 2 "Relay_THT:Relay_DPDT_Schrack-RT2-FormC_RM5mm" H 5400 2300 50  0001 C CNN
F 3 "http://www.te.com/commerce/DocumentDelivery/DDEController?Action=showdoc&DocId=Data+Sheet%7FRT2%7F1014%7Fpdf%7FEnglish%7FENG_DS_RT2_1014.pdf%7F6-1393243-3" H 6050 2450 50  0001 C CNN
	1    5400 2300
	1    0    0    -1  
$EndComp
$Comp
L Device:D D2
U 1 1 5B87A7FC
P 4400 2300
F 0 "D2" V 4354 2379 50  0000 L CNN
F 1 "1N4007" V 4445 2379 50  0000 L CNN
F 2 "Diode_THT:D_T-1_P10.16mm_Horizontal" H 4400 2300 50  0001 C CNN
F 3 "~" H 4400 2300 50  0001 C CNN
	1    4400 2300
	0    1    1    0   
$EndComp
Wire Wire Line
	4400 2450 4400 2800
Wire Wire Line
	4400 2800 5000 2800
Wire Wire Line
	5000 2800 5000 2600
Wire Wire Line
	5000 3050 5000 2800
Connection ~ 5000 2800
Wire Wire Line
	5000 1400 5000 1700
Wire Wire Line
	4400 2150 4400 1700
Wire Wire Line
	4400 1700 5000 1700
Connection ~ 5000 1700
Wire Wire Line
	5000 1700 5000 2000
$Comp
L Device:R R9
U 1 1 5B87BF5B
P 4150 1700
F 0 "R9" V 4357 1700 50  0000 C CNN
F 1 "2.2k" V 4266 1700 50  0000 C CNN
F 2 "Resistor_THT:R_Axial_DIN0204_L3.6mm_D1.6mm_P7.62mm_Horizontal" V 4080 1700 50  0001 C CNN
F 3 "~" H 4150 1700 50  0001 C CNN
	1    4150 1700
	0    -1   -1   0   
$EndComp
Wire Wire Line
	4300 1700 4400 1700
Connection ~ 4400 1700
$Comp
L Device:D_Zener D1
U 1 1 5B87CD17
P 3700 2000
F 0 "D1" V 3654 2079 50  0000 L CNN
F 1 "5V1" V 3745 2079 50  0000 L CNN
F 2 "Diode_THT:D_T-1_P10.16mm_Horizontal" H 3700 2000 50  0001 C CNN
F 3 "~" H 3700 2000 50  0001 C CNN
	1    3700 2000
	0    1    1    0   
$EndComp
Wire Wire Line
	3700 1850 3700 1700
Wire Wire Line
	3700 1700 4000 1700
$Comp
L Device:CP_Small C4
U 1 1 5B87D39A
P 3300 2050
F 0 "C4" H 3388 2096 50  0000 L CNN
F 1 "33u" H 3388 2005 50  0000 L CNN
F 2 "Capacitor_THT:CP_Radial_D5.0mm_P2.00mm" H 3300 2050 50  0001 C CNN
F 3 "~" H 3300 2050 50  0001 C CNN
	1    3300 2050
	1    0    0    -1  
$EndComp
Wire Wire Line
	3300 1950 3300 1700
Wire Wire Line
	3300 1700 3700 1700
Connection ~ 3700 1700
$Comp
L power:GND #PWR0109
U 1 1 5B87E1C9
P 3700 2150
F 0 "#PWR0109" H 3700 1900 50  0001 C CNN
F 1 "GND" H 3705 1977 50  0000 C CNN
F 2 "" H 3700 2150 50  0001 C CNN
F 3 "" H 3700 2150 50  0001 C CNN
	1    3700 2150
	1    0    0    -1  
$EndComp
$Comp
L power:GND #PWR0110
U 1 1 5B87E230
P 3300 2150
F 0 "#PWR0110" H 3300 1900 50  0001 C CNN
F 1 "GND" H 3305 1977 50  0000 C CNN
F 2 "" H 3300 2150 50  0001 C CNN
F 3 "" H 3300 2150 50  0001 C CNN
	1    3300 2150
	1    0    0    -1  
$EndComp
Wire Wire Line
	2950 2550 2950 1700
Wire Wire Line
	2950 1700 3300 1700
Connection ~ 3300 1700
Wire Wire Line
	1900 2550 1900 1700
Wire Wire Line
	1900 1700 2950 1700
Connection ~ 2950 1700
Wire Wire Line
	1250 5600 1250 5550
$Comp
L power:+12V #PWR0113
U 1 1 5B88A2B9
P 1250 5400
F 0 "#PWR0113" H 1250 5250 50  0001 C CNN
F 1 "+12V" H 1265 5573 50  0000 C CNN
F 2 "" H 1250 5400 50  0001 C CNN
F 3 "" H 1250 5400 50  0001 C CNN
	1    1250 5400
	1    0    0    -1  
$EndComp
Wire Wire Line
	1250 5400 1250 5550
Connection ~ 1250 5550
$Comp
L Device:C C6
U 1 1 5B874463
P 1800 5850
F 0 "C6" H 1915 5896 50  0000 L CNN
F 1 "100n" H 1915 5805 50  0000 L CNN
F 2 "Capacitor_SMD:C_1206_3216Metric_Pad1.42x1.75mm_HandSolder" H 1838 5700 50  0001 C CNN
F 3 "~" H 1800 5850 50  0001 C CNN
	1    1800 5850
	1    0    0    -1  
$EndComp
$Comp
L power:GND #PWR0114
U 1 1 5B874529
P 1800 6000
F 0 "#PWR0114" H 1800 5750 50  0001 C CNN
F 1 "GND" H 1805 5827 50  0000 C CNN
F 2 "" H 1800 6000 50  0001 C CNN
F 3 "" H 1800 6000 50  0001 C CNN
	1    1800 6000
	1    0    0    -1  
$EndComp
Wire Wire Line
	1800 5700 1800 5550
Wire Wire Line
	1800 5550 1250 5550
$Comp
L Device:C_Small C7
U 1 1 5B88E86C
P 6750 1700
F 0 "C7" V 6550 1700 50  0000 C CNN
F 1 "220n/250V" V 6650 1700 50  0000 C CNN
F 2 "Capacitor_THT:C_Rect_L11.0mm_W3.5mm_P10.00mm_MKT" H 6750 1700 50  0001 C CNN
F 3 "~" H 6750 1700 50  0001 C CNN
	1    6750 1700
	-1   0    0    1   
$EndComp
$Comp
L Connector:Conn_01x02_Male J5
U 1 1 5B8FA417
P 7300 2900
F 0 "J5" H 7272 2780 50  0000 R CNN
F 1 "AC_IN" H 7272 2871 50  0000 R CNN
F 2 "TerminalBlock:TerminalBlock_bornier-2_P5.08mm" H 7300 2900 50  0001 C CNN
F 3 "~" H 7300 2900 50  0001 C CNN
	1    7300 2900
	-1   0    0    1   
$EndComp
$Comp
L Connector:Conn_01x02_Male J3
U 1 1 5B8FD29E
P 7300 1000
F 0 "J3" H 7273 880 50  0000 R CNN
F 1 "AC1" H 7273 971 50  0000 R CNN
F 2 "TerminalBlock:TerminalBlock_bornier-2_P5.08mm" H 7300 1000 50  0001 C CNN
F 3 "~" H 7300 1000 50  0001 C CNN
	1    7300 1000
	-1   0    0    1   
$EndComp
$Comp
L Connector:Conn_01x02_Male J4
U 1 1 5B8FD33C
P 7300 1750
F 0 "J4" H 7273 1630 50  0000 R CNN
F 1 "AC2" H 7273 1721 50  0000 R CNN
F 2 "TerminalBlock:TerminalBlock_bornier-2_P5.08mm" H 7300 1750 50  0001 C CNN
F 3 "~" H 7300 1750 50  0001 C CNN
	1    7300 1750
	-1   0    0    1   
$EndComp
$Comp
L Device:C_Small C8
U 1 1 5B8FFB48
P 6750 950
F 0 "C8" V 6550 950 50  0000 C CNN
F 1 "220n/250V" V 6650 950 50  0000 C CNN
F 2 "Capacitor_THT:C_Rect_L11.0mm_W3.5mm_P10.00mm_MKT" H 6750 950 50  0001 C CNN
F 3 "~" H 6750 950 50  0001 C CNN
	1    6750 950 
	-1   0    0    1   
$EndComp
Wire Wire Line
	7100 1650 7000 1650
Wire Wire Line
	7000 1650 7000 1450
Wire Wire Line
	7000 1450 6750 1450
Wire Wire Line
	6750 1450 6750 1600
Wire Wire Line
	7100 1750 7000 1750
Wire Wire Line
	7000 1750 7000 1950
Wire Wire Line
	7000 1950 6750 1950
Wire Wire Line
	6750 1950 6750 1800
Wire Wire Line
	7100 900  7000 900 
Wire Wire Line
	7000 900  7000 700 
Wire Wire Line
	7000 700  6750 700 
Wire Wire Line
	6750 700  6750 850 
Wire Wire Line
	7100 1000 7000 1000
Wire Wire Line
	7000 1000 7000 1200
Wire Wire Line
	7000 1200 6750 1200
Wire Wire Line
	6750 1200 6750 1050
Wire Wire Line
	6750 1950 6600 1950
Wire Wire Line
	6600 1950 6600 1200
Wire Wire Line
	6600 1200 6750 1200
Connection ~ 6750 1950
Connection ~ 6750 1200
Wire Wire Line
	6600 2900 6600 1950
Connection ~ 6600 1950
Wire Wire Line
	7100 2800 6950 2800
Wire Wire Line
	5800 2800 5800 2600
Wire Wire Line
	5800 2800 5400 2800
Wire Wire Line
	5400 2800 5400 2600
Connection ~ 5800 2800
Wire Wire Line
	6750 1450 5900 1450
Wire Wire Line
	5900 1450 5900 2000
Connection ~ 6750 1450
Wire Wire Line
	5500 2000 5500 700 
Wire Wire Line
	5500 700  6750 700 
Connection ~ 6750 700 
$Comp
L Connector:Conn_01x05_Male J6
U 1 1 5B912420
P 6550 4100
F 0 "J6" H 6656 4478 50  0001 C CNN
F 1 "TRAFO_PRI" H 6656 4387 50  0001 C CNN
F 2 "TerminalBlock:TerminalBlock_bornier-5_P5.08mm" H 6550 4100 50  0001 C CNN
F 3 "~" H 6550 4100 50  0001 C CNN
	1    6550 4100
	1    0    0    -1  
$EndComp
Connection ~ 6950 2800
Wire Wire Line
	6950 2800 5800 2800
$Comp
L Connector:Conn_01x05_Male J1
U 1 1 5B915F85
P 6350 4100
F 0 "J1" H 6450 3700 50  0001 R CNN
F 1 "TRAFO_SEC" H 6750 3800 50  0001 R CNN
F 2 "TerminalBlock:TerminalBlock_bornier-5_P5.08mm" H 6350 4100 50  0001 C CNN
F 3 "~" H 6350 4100 50  0001 C CNN
	1    6350 4100
	-1   0    0    1   
$EndComp
$Comp
L Diode_Bridge:DF06M D4
U 1 1 5B916942
P 5450 4700
F 0 "D4" H 5791 4746 50  0000 L CNN
F 1 "DF06M" H 5650 4850 50  0000 L CNN
F 2 "Diode_THT:Diode_Bridge_DIP-4_W7.62mm_P5.08mm" H 5600 4825 50  0001 L CNN
F 3 "http://www.vishay.com/docs/88571/dfm.pdf" H 5450 4700 50  0001 C CNN
	1    5450 4700
	-1   0    0    -1  
$EndComp
Wire Wire Line
	6000 5100 5450 5100
Wire Wire Line
	5450 5100 5450 5000
$Comp
L power:GND #PWR07
U 1 1 5B91AEEB
P 5850 4800
F 0 "#PWR07" H 5850 4550 50  0001 C CNN
F 1 "GND" H 5855 4627 50  0000 C CNN
F 2 "" H 5850 4800 50  0001 C CNN
F 3 "" H 5850 4800 50  0001 C CNN
	1    5850 4800
	1    0    0    -1  
$EndComp
$Comp
L Device:CP_Small C11
U 1 1 5B91D3B1
P 4800 4950
F 0 "C11" H 4888 4996 50  0000 L CNN
F 1 "1000u/16V" H 4888 4905 50  0000 L CNN
F 2 "Capacitor_THT:CP_Radial_D10.0mm_P5.00mm" H 4800 4950 50  0001 C CNN
F 3 "~" H 4800 4950 50  0001 C CNN
	1    4800 4950
	1    0    0    -1  
$EndComp
$Comp
L power:GND #PWR06
U 1 1 5B91D4AA
P 4800 5050
F 0 "#PWR06" H 4800 4800 50  0001 C CNN
F 1 "GND" H 4805 4877 50  0000 C CNN
F 2 "" H 4800 5050 50  0001 C CNN
F 3 "" H 4800 5050 50  0001 C CNN
	1    4800 5050
	1    0    0    -1  
$EndComp
Wire Wire Line
	5850 4800 5850 4700
Wire Wire Line
	5850 4700 5750 4700
Wire Wire Line
	4800 4700 4800 4850
Wire Wire Line
	4800 4700 5150 4700
$Comp
L Device:C C10
U 1 1 5B92C199
P 4400 4950
F 0 "C10" H 4515 4996 50  0000 L CNN
F 1 "100n" H 4515 4905 50  0000 L CNN
F 2 "Capacitor_SMD:C_1206_3216Metric_Pad1.42x1.75mm_HandSolder" H 4438 4800 50  0001 C CNN
F 3 "~" H 4400 4950 50  0001 C CNN
	1    4400 4950
	1    0    0    -1  
$EndComp
$Comp
L power:GND #PWR05
U 1 1 5B92C349
P 4400 5100
F 0 "#PWR05" H 4400 4850 50  0001 C CNN
F 1 "GND" H 4405 4927 50  0000 C CNN
F 2 "" H 4400 5100 50  0001 C CNN
F 3 "" H 4400 5100 50  0001 C CNN
	1    4400 5100
	1    0    0    -1  
$EndComp
Wire Wire Line
	4400 4800 4400 4700
Wire Wire Line
	4400 4700 4250 4700
$Comp
L power:GND #PWR04
U 1 1 5B92EB32
P 3950 5000
F 0 "#PWR04" H 3950 4750 50  0001 C CNN
F 1 "GND" H 3955 4827 50  0000 C CNN
F 2 "" H 3950 5000 50  0001 C CNN
F 3 "" H 3950 5000 50  0001 C CNN
	1    3950 5000
	1    0    0    -1  
$EndComp
Wire Wire Line
	4400 4700 4800 4700
Connection ~ 4400 4700
Connection ~ 4800 4700
$Comp
L Device:C C9
U 1 1 5B93150C
P 3350 4950
F 0 "C9" H 3465 4996 50  0000 L CNN
F 1 "100n" H 3465 4905 50  0000 L CNN
F 2 "Capacitor_SMD:C_1206_3216Metric_Pad1.42x1.75mm_HandSolder" H 3388 4800 50  0001 C CNN
F 3 "~" H 3350 4950 50  0001 C CNN
	1    3350 4950
	1    0    0    -1  
$EndComp
Wire Wire Line
	3350 4800 3350 4700
Wire Wire Line
	3350 4700 3650 4700
$Comp
L power:GND #PWR03
U 1 1 5B934012
P 3350 5100
F 0 "#PWR03" H 3350 4850 50  0001 C CNN
F 1 "GND" H 3355 4927 50  0000 C CNN
F 2 "" H 3350 5100 50  0001 C CNN
F 3 "" H 3350 5100 50  0001 C CNN
	1    3350 5100
	1    0    0    -1  
$EndComp
$Comp
L Device:CP_Small C1
U 1 1 5B934069
P 3050 4950
F 0 "C1" H 3138 4996 50  0000 L CNN
F 1 "33u" H 2800 4950 50  0000 L CNN
F 2 "Capacitor_THT:CP_Radial_D5.0mm_P2.00mm" H 3050 4950 50  0001 C CNN
F 3 "~" H 3050 4950 50  0001 C CNN
	1    3050 4950
	1    0    0    -1  
$EndComp
Wire Wire Line
	3050 4850 3050 4700
Wire Wire Line
	3050 4700 3350 4700
Connection ~ 3350 4700
$Comp
L power:GND #PWR02
U 1 1 5B936E5F
P 3050 5050
F 0 "#PWR02" H 3050 4800 50  0001 C CNN
F 1 "GND" H 3055 4877 50  0000 C CNN
F 2 "" H 3050 5050 50  0001 C CNN
F 3 "" H 3050 5050 50  0001 C CNN
	1    3050 5050
	1    0    0    -1  
$EndComp
$Comp
L power:+12V #PWR01
U 1 1 5B93EE1F
P 3050 4650
F 0 "#PWR01" H 3050 4500 50  0001 C CNN
F 1 "+12V" H 3065 4823 50  0000 C CNN
F 2 "" H 3050 4650 50  0001 C CNN
F 3 "" H 3050 4650 50  0001 C CNN
	1    3050 4650
	1    0    0    -1  
$EndComp
Wire Wire Line
	3050 4650 3050 4700
Connection ~ 3050 4700
$Comp
L Regulator_Linear:L78L12_TO92 U2
U 1 1 5B94219F
P 3950 4700
F 0 "U2" H 3950 4942 50  0000 C CNN
F 1 "L78L12_TO92" H 3950 4851 50  0000 C CNN
F 2 "Package_TO_SOT_THT:TO-92_Inline" H 3950 4925 50  0001 C CIN
F 3 "http://www.st.com/content/ccc/resource/technical/document/datasheet/15/55/e5/aa/23/5b/43/fd/CD00000446.pdf/files/CD00000446.pdf/jcr:content/translations/en.CD00000446.pdf" H 3950 4650 50  0001 C CNN
	1    3950 4700
	-1   0    0    -1  
$EndComp
Wire Wire Line
	6600 2900 6850 2900
Wire Wire Line
	6950 4300 6750 4300
Wire Wire Line
	6950 2800 6950 4300
Wire Wire Line
	6750 3900 6850 3900
Wire Wire Line
	6850 3900 6850 2900
Connection ~ 6850 2900
Wire Wire Line
	6850 2900 7100 2900
Wire Wire Line
	4050 3400 4600 3400
$Comp
L Device:CP_Small C5
U 1 1 5B929200
P 4050 3600
F 0 "C5" H 4138 3646 50  0000 L CNN
F 1 "33u" H 4138 3555 50  0000 L CNN
F 2 "Capacitor_THT:CP_Radial_D5.0mm_P2.00mm" H 4050 3600 50  0001 C CNN
F 3 "~" H 4050 3600 50  0001 C CNN
	1    4050 3600
	1    0    0    -1  
$EndComp
$Comp
L power:GND #PWR0107
U 1 1 5B92927E
P 4050 3700
F 0 "#PWR0107" H 4050 3450 50  0001 C CNN
F 1 "GND" H 4055 3527 50  0000 C CNN
F 2 "" H 4050 3700 50  0001 C CNN
F 3 "" H 4050 3700 50  0001 C CNN
	1    4050 3700
	1    0    0    -1  
$EndComp
Wire Wire Line
	4050 3500 4050 3400
Wire Wire Line
	6150 4200 6000 4200
Wire Wire Line
	6000 4200 6000 5100
Wire Wire Line
	5450 4000 5450 4400
Wire Wire Line
	5450 4000 6150 4000
Wire Bus Line
	6700 4350 6700 3800
Wire Bus Line
	6700 3800 6200 3800
Wire Bus Line
	6200 3800 6200 4350
Wire Bus Line
	6200 4350 6700 4350
Text Notes 6050 3750 0    50   ~ 0
44087/EI30/230-12
$EndSCHEMATC
